{
    "LANGUAGE":"RU",
    "VALIDATION_INVALID_EMIAL": "Недействительный адрес электронной почты",
    "VALIDATION_INVALID_PASSWORD": "Неправильный пароль",
    "VALIDATION_EMPTY_STRING": "Значение не может быть пустым",
    "VALIDATION_INVALID_DATE": "Значение не является датой",
    "VALIDATION_NOT_DATE": "Значение даты не указано",
    "VALIDATION_FLAG_NOT_CHECKED": "Флаг должен быть установлен",
    "VALIDATION_PASSWORDS_NOT_EQUAL": "Пароль и подтверждение не равны",
    "VALIDATION_PLEASE_CORRECT_ERRORS": "Пожалуйста, исправьте поля ниже",
    "VALIDATION_ACCEPT_TERMS": "4",
    "VALIDATION_SHOULD_BE_OLDER": "Вы должны быть как минимум %AGE% лет для регистрации",
    
    
    "COMPONENTS_LOGIN_ADMIN" : "Вход для администратора",
    "COMPONENTS_LOGIN_PROVIDER" : "Вход для провайдера",
    "COMPONENTS_LOGIN_PATIENT" : "Вход для клиентов",
    "COMPONENTS_FORGOT_PASSWORD" : "Забыли пароль",

    "HEADER_CLIENTS" : "Клиенты",
    "HEADER_REPORTS" : "Отчеты",
    "HEADER_CONSULTATION_MEETINGS" : "Консультационные совещания",
    "HEADER_VIEW_LOGS" : "Просмотр журналов",
    "HEADER_INTEGRATION_LOGS" : "Журналы интеграции",
    "HEADER_SERVICES" : "Сервисы",
    "HEADER_LOG_OUT" : "Выйти",
    "HEADER_LOGS" : "Журналы",
    
    "SNAPMDADMIN_CLIENT_ALL_TYPES" : "Все типы",  
    "SNAPMDADMIN_CLIENT_SHOW_ARCHIVED" : "Показать в архиве",
    "SNAPMDADMIN_ADD_NEW_RECORD" : "Добавить новую запись",
    "SNAPMDADMIN_EDIT" : "Редактировать",
    "SNAPMDADMIN_DELETE" : "Удалить",
    "SNAPMDADMIN_CLIENT_ID" : "Идентификатор",
    "SNAPMDADMIN_CLIENT_NAME" : "Имя",
    "SNAPMDADMIN_BUTTON_UPDATE" : "Обновить",
    "SNAPMDADMIN_BUTTON_CLOSE" : "Закрыть",
    "SNAPMDADMIN_BUTTON_SAVE" : "Сохранить",
    "SNAPMDADMIN_TOTAL_ITEMS" : "Всего элементов",
    "SNAPMDADMIN_COLLAPSE_ALL" : "Свернуть всё",
    "SNAPMDADMIN_EXPAND_ALL" : "Развернуть всё",
    "SNAPMDADMIN_SAVE_SETTINGS" : "Сохранить настройки",

    "DASHBOARD_CLIENT" : "Клиент",
    "DASHBOARD" : "Панель приборов",

    "SNAPMDADMIN_DETAILS" : "Детали",
    "SNAPMDADMIN_CLIENT_SEATS" : "Места",
    "SNAPMDADMIN_CLIENT_SEATS_ASSIGNED" : "Назначенные места",
    "SNAPMDADMIN_CLIENT_DETAILS" : "Детали",
    "SNAPMDADMIN_NO_DATA_TO_DISPLAY" : "Нет данных для отображения",
    "SNAPMDADMIN_CLIENT_CONTACTS_AREA_IN_DEVELOPMENT" : "Область клиентских контактов в разработке",
    "SNAPMDADMIN_CLIENT_ANALITICS_AREA_IN_DEVELOPMENT" : "Область клиентской аналитики в разработке",
    "SNAPMDADMIN_BUTTON_ARCHIVE_CLIENT" : "Архивный клиент",
    "SNAPMDADMIN_BUTTON_ACTIVATE_CLIENT" : "Активировать клиента",
    "SNAPMDADMIN_PROVIDER_SEATS" : "Места провайдеров",
    "SNAPMDADMIN_ADMIN_SEATS" : "Места администраторов",
    "SNAPMDADMIN_TOTAL_SEATS" : "Всего мест",

    "SNAPMDADMIN_SETTINGSV2_CLIENT" : "Клиент",
    "SNAPMDADMIN_SETTINGSV2_CLIENT_ADDRESS" : "Адрес клиента",
    "SNAPMDADMIN_SETTINGSV2_MODULES" : "Модули",
    "SNAPMDADMIN_SETTINGSV2_MOBILE" : "Мобильный",
    "SNAPMDADMIN_SETTINGSV2_PLATFORM_SEATS" : "Платформы",
    "SNAPMDADMIN_SETTINGSV2_BRANDING" : "Брендинг",
    "SNAPMDADMIN_SETTINGSV2_PAYMENT_PARTNER" : "Платежный партнер",
    "SNAPMDADMIN_SETTINGSV2_EPRESCRIPTION_PARTNER" : "Партнер по рецепту",
    "SNAPMDADMIN_SETTINGSV2_SINGLE_SIGN_ON" : "Единая точка входа",
    "SNAPMDADMIN_SETTINGSV2_CONSULTATION_PARAMETERS" : "Параметры консультаций",
    "SNAPMDADMIN_SETTINGSV2_REQUIRED_CUSTOMER_FIELDS" : "Обязательные поля клиента",
    "SNAPMDADMIN_SETTINGSV2_CUSTOM_APP_LINKS" : "Пользовательские ссылки на приложения",
    "SNAPMDADMIN_SETTINGSV2_EHR_INTEGRATION" : "Интеграция EHR",
    "SNAPMDADMIN_SETTINGSV2_INTERNAL_API_INTEGRATION" : "Внутренняя интеграция API",
    "SNAPMDADMIN_SETTINGSV2_SUBSCRIBE_NOTIFICATION_EVENTS" :"Подписаться на уведомления о событиях",

    "SNAPMDADMIN_SETTINGSV2_CLIENT_TYPE" : "Тип клиента",
    "SNAPMDADMIN_SETTINGSV2_CLIENT_NAME" : "Имя клиента",
    "SNAPMDADMIN_SETTINGSV2_USE_AS_PRODUCT_NAME" : "Использовать как название продукта",
    "SNAPMDADMIN_SETTINGSV2_CONSULTATION_FEE" : "Комиссия за консультацию",
    "SNAPMDADMIN_SETTINGSV2_CONTACT_NUMBER" : "Контактный номер",
    "SNAPMDADMIN_SETTINGSV2_IT_DEPT_CONTACT_NUMBER" : "Контактный телефон",
    "SNAPMDADMIN_SETTINGSV2_APPOINTMENTS_CONTACT_NUMBER" : "Контактный номер для встреч",
    "SNAPMDADMIN_SETTINGSV2_NPI_NUMBER" : "Идентификационный номер национального поставщика",
    "SNAPMDADMIN_SETTINGSV2_LANGUAGE" : "Язык",

    "SNAPMDADMIN_SETTINGSV2_ADDRESS_LINE_1" : "Адресная строка 1",
    "SNAPMDADMIN_SETTINGSV2_ADDRESS_LINE_2" : "Адресная строка 2",
    "SNAPMDADMIN_SETTINGSV2_CITY" : "Город",
    "SNAPMDADMIN_SETTINGSV2_STATE_PROVINCE" : "Штат/Провинция",
    "SNAPMDADMIN_SETTINGSV2_ZIP_POSTAL_CODE" : "Почтовый индекс",
    "SNAPMDADMIN_SETTINGSV2_COUNTRY" : "Страна",

    "SNAPMDADMIN_SETTINGSV2_E_COMMERCE" : "Электронная коммерция",
    "SNAPMDADMIN_SETTINGSV2_HIDE_PAYMENT_PAGE_BEFOR_WAITING_ROOM" : "Скрыть страницу платежа перед комнатой ожидания",
    "SNAPMDADMIN_SETTINGSV2_INS_VERIFICATION" : "Верификация",
    "SNAPMDADMIN_SETTINGSV2_INS_VERIFICATION_TESTING_COMMANDS" : "Проверка команды верификации",
    "SNAPMDADMIN_SETTINGSV2_INSURANCE_VERIFICATION_BEFORE_WAITING_ROOM" : "Проверка страхования перед залом ожидания",
    "SNAPMDADMIN_SETTINGSV2_E_PRESCRIPTIONS" : "Электронные рецепты",
    "SNAPMDADMIN_SETTINGSV2_SCHEDULE_1" : "График 1",
    "SNAPMDADMIN_SETTINGSV2_ON_DEMAND" : "По требованию",
    "SNAPMDADMIN_SETTINGSV2_INTAKE_FROM" : "Форма впуска",
    "SNAPMDADMIN_SETTINGSV2_SCHEDULED" : "Запланированное",
    "SNAPMDADMIN_SETTINGSV2_MEDICAL_CODES" : "Медицинские коды",
    "SNAPMDADMIN_SETTINGSV2_VIDEO_BETA" : "Видео бета",
    "SNAPMDADMIN_SETTINGSV2_PROVIDER_SEARCH" : "Поиск поставщика",
    "SNAPMDADMIN_SETTINGSV2_TEXT_MESSAGING" : "Текст сообщения",
    "SNAPMDADMIN_SETTINGSV2_RXNT_EHR" : "RxNT EHR",
    "SNAPMDADMIN_SETTINGSV2_RXNT_PM" : "RxNT PM",
    "SNAPMDADMIN_SETTINGSV2_SHOW_CTT_BEFORE_SHEDULED" : "Показать CTT до запланированного",
    "SNAPMDADMIN_SETTINGSV2_FILE_SHARING" : "Общий доступ к файлам",
    "SNAPMDADMIN_SETTINGSV2_ORGANIZATION_AND_LOCATION" : "Организация и местоположение",
    "SNAPMDADMIN_SETTINGSV2_ENABLE_ADDRESS_VALIDATION" : "Включить проверку адресов",
    "SNAPMDADMIN_SETTINGSV2_HIDE_OPEN_CONSULTATION" : "Скрыть открытую консультацию (P2P открыт все еще разрешен)",
    "SNAPMDADMIN_SETTINGSV2_HIDE_DR_TO_DR_CHAT" : "Скрыть Док и Док чат",
    "SNAPMDADMIN_SETTINGSV2_DISABLE_PHONE_CONSULTATION" : "Отключить телефонную консультацию",
    "SNAPMDADMIN_SETTINGSV2_DR_TO_DR_CHAT_ON_ADMIN" : "Док и Док чат администратор",
    "SNAPMDADMIN_SETTINGSV2_ANNOTATION" : "Аннотирование",
    "SNAPMDADMIN_SETTINGSV2_KUBI" : "Kubi",
    "SNAPMDADMIN_SETTINGSV2_CONSULTATION_VIDEO_ARHIVE" : "Консультационный видеоархив",
    "SNAPMDADMIN_SETTINGSV2_ADMIN_MEETING_REPORT" : "Отчет о встрече с администратором",
    "SNAPMDADMIN_SETTINGSV2_INCLUDE_DIRECTIONS" : "Включить направления",
    "SNAPMDADMIN_SETTINGSV2_HIDE_FORGOT_PASSWORD_LINK" : "Скрыть ссылку на забытый пароль",
    "SNAPMDADMIN_SETTINGSV2_TAG_AN_ENCOUNTER_WITH_GEO_LOCATION" : "Пометить встречу с местоположением ГЕО",
    "SNAPMDADMIN_SETTINGSV2_SHOW_APPOINTMENT_WIZARD" : "Показать мастера назначения",
    "SNAPMDADMIN_SETTINGSV2_IS_NOW_SCHEDULER_BUTTON_ENABLED" : "Включена кнопка планировщика «Сейчас»",

    "SNAPMDADMIN_SETTINGSV2_INCLUDE_IN_GENERIC_APP" : "Включить в универсальное приложение",

    "SNAPMDADMIN_SETTINGSV2_SEATS_TYPE" : "Типы мест",
    "SNAPMDADMIN_SETTINGSV2_ASSIGNED" : "Назначенный",
    "SNAPMDADMIN_SETTINGSV2_AVAILABLE" : "Доступный",
    "SNAPMDADMIN_SETTINGSV2_ENTERPRISE" : "Предприятие",
    "SNAPMDADMIN_SETTINGSV2_INCL" : "вкл",
    "SNAPMDADMIN_SETTINGSV2_PENDING" : "в ожидании",
    "SNAPMDADMIN_SETTINGSV2_ADMIN" : "Администратор",
    "SNAPMDADMIN_SETTINGSV2_TOTAL_SEATS" : "Всего мест",

    "SNAPMDADMIN_SETTINGSV2_PLATFORM_NAME" : "Название платформы",
    "SNAPMDADMIN_SETTINGSV2_SUB_TITLE" : "Подзаголовок",
    "SNAPMDADMIN_SETTINGSV2_PLATFORM_URL" : "URL-адрес платформы",
    "SNAPMDADMIN_SETTINGSV2_PRIMARY_BRAND_COLOR" : "Цвет первичной марки",
    "SNAPMDADMIN_SETTINGSV2_BRAND_TEXT_COLOR" : "Цвет текста бренда",
    "SNAPMDADMIN_SETTINGSV2_BRAND_BACKGROUND_COLOR" : "Цвет фона бренда",
    "SNAPMDADMIN_SETTINGSV2_OK" : "OK",
    "SNAPMDADMIN_SETTINGSV2_CLEAR" : "Очистить",

    "SNAPMDADMIN_SETTINGSV2_AUTORIZE_NET_BASE_URL" : "Основной URL-адрес Autorize.net",
    "SNAPMDADMIN_SETTINGSV2_AUTORIZE_NET_POST_URL" : "URL-адрес отправителя Autorize.net (dll)",
    "SNAPMDADMIN_SETTINGSV2_AUTORIZE_NET_TRANSACTION_KEY" : "Ключ транзакции Autorize.net",
    "SNAPMDADMIN_SETTINGSV2_AUTORIZE_NET_LOGIN_ID" : "Идентификатор входа в Autorize.net",
    "SNAPMDADMIN_SETTINGSV2_CHARGIFY_SUBDOMAIN" : "Зарядить субдомен",
    "SNAPMDADMIN_SETTINGSV2_CHARGIFY_API_V1_KEY" : "Зарядка API v1 ключ",
    "SNAPMDADMIN_SETTINGSV2_CHARGIFY_API_V2_KEY_ID" : "Зарядка API v2 ключ ID",
    "SNAPMDADMIN_SETTINGSV2_CHARGIFY_API_V2_SHARED_SECRET" : "Зарядка API v2 Общий секрет",
    "SNAPMDADMIN_SETTINGSV2_CHARGIFY_API_V2_PASSWORD" : "Зарядка API v2 Пароль",
    "SNAPMDADMIN_SETTINGSV2_SAVE_SETTINGS_AND_SWITCH_TO_AUTORIZE_NET" : "Сохраните настройки и переключитесь на AutorizeNet",
    "SNAPMDADMIN_SETTINGSV2_SAVE_SETTINGS_AND_SWITCH_TO_CHARGIFY" : "Сохраните настройки и переключитесь на Chargify",

    "SNAPMDADMIN_SETTINGSV2_SERVICE_URL" : "URL-адрес службы",
    "SNAPMDADMIN_SETTINGSV2_SINGLE_SIGN_ON_URL" : "Единый входной URL",
    "SNAPMDADMIN_SETTINGSV2_ACCOUNT_ID" : "ID учетной записи",
    "SNAPMDADMIN_SETTINGSV2_PRACTICE_ID" : "Идентификатор практики",
    "SNAPMDADMIN_SETTINGSV2_AUTHENTICATION_KEY" : "Ключ аутентификации",
    "SNAPMDADMIN_SETTINGSV2_API_URL" : "URL-адрес Api",
    "SNAPMDADMIN_SETTINGSV2_SAVE_SETTINGS_AND_SWITCH_TO_MDTOOLBOX" : "Сохраните настройки и переключитесь на MDToolbox",
    "SNAPMDADMIN_SETTINGSV2_SAVE_SETTINGS_AND_SWITCH_TO_RXNT" : "Сохраните настройки и переключитесь на RxNT",

    "SNAPMDADMIN_SETTINGSV2_OAUTH_CLIENT_ID" : "Идентификатор клиента OAuth",
    "SNAPMDADMIN_SETTINGSV2_OAUTH_CLIENT_SECRET" : "Секрет клиента OAuth",
    "SNAPMDADMIN_SETTINGSV2_OAUTH_URL" : "URL-адрес OAuth",
    "SNAPMDADMIN_SETTINGSV2_OAUTH_CALLBACK" : "OAuth Перезвони",
    "SNAPMDADMIN_SETTINGSV2_SSO_PROVIDER_LOGIN_URL" : "URL-адрес входа поставщика услуг единого входа",
    "SNAPMDADMIN_SETTINGSV2_PROVIDER_CONSULTATION_RETURN_URL" : "URL-адрес консультанта",
    "SNAPMDADMIN_SETTINGSV2_PROVIDER_SSO_OPTIONS" : "Параметры единого входа поставщика (нет, необязательно, обязательно)",
    "SNAPMDADMIN_SETTINGSV2_PROVIDER_SSO_BUTTON_TEXT" : "Текст кнопки единого входа поставщика",
    "SNAPMDADMIN_SETTINGSV2_SSO_ADMIN_LOGIN_URL" : "URL входа администратора SSO",
    "SNAPMDADMIN_SETTINGSV2_ADMIN_CONSULTATION_RETURN_URL" : "URL-адрес для возврата администратора",
    "SNAPMDADMIN_SETTINGSV2_ADMIN_SSO_OPTIONS" : "Параметры единого входа администратора (нет, необязательный, обязательный)",
    "SNAPMDADMIN_SETTINGSV2_ADMIN_SSO_BUTTON_TEXT" : "Текст сообщения администратора SSO",
    "SNAPMDADMIN_SETTINGSV2_SSO_CUSTOMER_LOGIN_URL" : "URL-адрес входа в систему единого входа",
    "SNAPMDADMIN_SETTINGSV2_CUSTOMER_CONSULTATION_RETURN_URL" : "Возврат URL-адреса клиента",
    "SNAPMDADMIN_SETTINGSV2_CUSTOMER_SSO_OPTIONS" : "Варианты единого входа клиента (нет, необязательно, обязательно)",
    "SNAPMDADMIN_SETTINGSV2_CUSTOMER_SSO_BUTTON_TEXT" : "Текст кнопки SSO клиента",
    "SNAPMDADMIN_SETTINGSV2_JWT_ISSUER" : "Jwt Эмитент",
    "SNAPMDADMIN_SETTINGSV2_PATIENT_TOKEN_API" : "Тоник пациента Api",
    "SNAPMDADMIN_SETTINGSV2_PATIENT_REGISTRATION_API" : "Регистрация пациентов Api",
    "SNAPMDADMIN_SETTINGSV2_PATIENT_FORGOT_PASSWORD_API" : "Пациент Забыл пароль Api",
    "SNAPMDADMIN_SETTINGSV2_SAVE_SSO" : "Сохранить SSO",

    "SNAPMDADMIN_SETTINGSV2_DEFAULT_AVAILABILITY_BLOCK_DURATION" : "По умолчанию Доступность Блокировка Длительность",
    "SNAPMDADMIN_SETTINGSV2_MINUTES" : "минут",
    "SNAPMDADMIN_SETTINGSV2_GOOD_COVERAGE_MIN_PROVIDERS_COUNT" : "Хорошее покрытие минимальных поставщиков",
    "SNAPMDADMIN_SETTINGSV2_SAVE_CONSULTATION_PARAMS" : "Сохранить консультацию Params",

    "SNAPMDADMIN_SETTINGSV2_BLOOD_TYPE" : "Группа крови",
    "SNAPMDADMIN_SETTINGSV2_HAIR_COLOR" : "Цвет волос",
    "SNAPMDADMIN_SETTINGSV2_ETHNICITY" : "Этнос",
    "SNAPMDADMIN_SETTINGSV2_EYE_COLOR" : "Цвет глаз",
    "SNAPMDADMIN_SETTINGSV2_HEIGHT" : "Высота",
    "SNAPMDADMIN_SETTINGSV2_WEIGHT" : "Вес",
    "SNAPMDADMIN_SETTINGSV2_PREFERRED_PHARMACY" : "Предпочтительная аптека",
    "SNAPMDADMIN_SETTINGSV2_PREFERRED_PROVIDER" : "Предпочтительный поставщик",
    "SNAPMDADMIN_SETTINGSV2_SAVE_CUSTOMER_FIELDS" : "Сохранить поля клиента",

    "SNAPMDADMIN_SETTINGSV2_IOS_SCHEMA_URL" : "URL схемы iOS",
    "SNAPMDADMIN_SETTINGSV2_ANDROID_SCHEMA_URL" : "URL схемы Android",
    "SNAPMDADMIN_SETTINGSV2_IOS_APP_STORE_URL" : "iOS Магазин приложений Url",
    "SNAPMDADMIN_SETTINGSV2_ANDROID_PLAY_STORE_URL" : "Android Магазин приложений URL",
    "SNAPMDADMIN_SETTINGSV2_SAVE_APP_LINKS" : "Сохранить ссылки на приложения",

    "SNAPMDADMIN_SETTINGSV2_EXTERNAL_HOSPITAL_ID" : "Внешний идентификатор больницы",
    "SNAPMDADMIN_SETTINGSV2_FAILURE_NOTIFICATION_EMAILS" : "Отказоустойчивые сообщения электронной почты (разделенные запятой)",
    "SNAPMDADMIN_SETTINGSV2_PRACTICE_MAX_SVC_URL" : "Практика Max Svc URL",
    "SNAPMDADMIN_SETTINGSV2_PRACTICE_MAX_SVC_LOGIN" : "Вход в систему PracticeMax Svc",
    "SNAPMDADMIN_SETTINGSV2_PRACTICE_MAX_SVC_PASSWORD" : "PracticeMax Svc Пароль",
    "SNAPMDADMIN_SETTINGSV2_TELEMED_APPOINTMENT_TYPE" : "TeleMed Назначение Тип",
    "SNAPMDADMIN_SETTINGSV2_DEFAULT_DEPARTMENT_ID" : "Отдел по умолчанию ID",
    "SNAPMDADMIN_SETTINGSV2_SEARCH_DEPARTMENTS" : "Поиск департаментов",
    "SNAPMDADMIN_SETTINGSV2_ATHENA_SVC_LOGIN" : "Вход в Athena Svc",
    "SNAPMDADMIN_SETTINGSV2_ATHENA_SVC_PASSWORD" : "Пароль Athena Svc",
    "SNAPMDADMIN_SETTINGSV2_ATHENA_SVC_URL" : "URL-адрес Athena Svc",
    "SNAPMDADMIN_SETTINGSV2_ATHENA_SVC_AUTH_PREFIX" : "Префикс Athena Svc Auth",
    "SNAPMDADMIN_SETTINGSV2_ATHENA_SVC_API_PREFIX" : "Префикс API Athena Svc",
    "SNAPMDADMIN_SETTINGSV2_ATHENA_HAS_PROVIDER_OR_FINANCIAL_GROUPS" : "Athena имеет поставщика или финансовые группы",
    "SNAPMDADMIN_SETTINGSV2_HIDE_PATIENT_PROFILE" : "Скрыть профиль пациента",
    "SNAPMDADMIN_SETTINGSV2_SYNC_ALLERGIES" : "Синхронизация аллергии",
    "SNAPMDADMIN_SETTINGSV2_SYNC_SURGERIES" : "Синхронизация",
    "SNAPMDADMIN_SETTINGSV2_SYNC_MEDICAL_HISTORY" : "Синхронизация медицинской истории",
    "SNAPMDADMIN_SETTINGSV2_SYNC_HEAD_CLINICIAN" : "Главный врач",
    "SNAPMDADMIN_SETTINGSV2_SYNC_PHARMACIES" : "Синтетические аптеки",
    "SNAPMDADMIN_SETTINGSV2_NO_EHR_PARTNER" : "Нет партнера EHR",
    "SNAPMDADMIN_SETTINGSV2_SAVE_SETTINGS_AND_SWITCH_TO_NONE" : "Сохраните настройки и переключитесь на None",
    "SNAPMDADMIN_SETTINGSV2_FINANCIAL_GROUPS" : "Финансовые группы",
    "SNAPMDADMIN_SETTINGSV2_PATIENT_PROFILE" : "Профиль пациента",
    "SNAPMDADMIN_SETTINGSV2_SAVE_SETTINGS_AND_SWITCH_TO_ATHENA" : "Сохраните настройки и переключитесь на Athena",
    "SNAPMDADMIN_SETTINGSV2_SAVE_SETTINGS_AND_SWITCH_TO_PRACTICE_MAX" : "Сохраните настройки и переключитесь на PracticeMax",
    "SNAPMDADMIN_SETTINGSV2_EHR_PARTNER" : "Партнер EHR",

    "SNAPMDADMIN_SETTINGSV2_API_USER_NAME" : "Имя пользователя API",
    "SNAPMDADMIN_SETTINGSV2_API_USER_PASSWORD" : "Пароль пользователя API",
    "SNAPMDADMIN_SETTINGSV2_NO_INTERNAL_API_INTEGRATION" : "Внутренняя интеграция API",
    "SNAPMDADMIN_SETTINGSV2_DISABLE_THE_INTERNAL_API" : "Отключить внутренний Api",
    "SNAPMDADMIN_SETTINGSV2_SAVE_SETTINGS_AND_ENABLE_THE_INTERNAL_API" : "Сохранить настройки и Включить внутренний API",

    "SNAPMDADMIN_SETTINGSV2_SECRET" : "Секрет",
    "SNAPMDADMIN_SETTINGSV2_CALLBACK" : "Перезвони",

    "SNAPMDADMIN_HOSPITAL_HOURS" : "Часы больниц",
    "SNAPMDADMIN_ENABLE_HOSPITAL_HOURS_ON_CALENDAR" : "Включить часы больниц в календаре",
    "SNAPMDADMIN_START_DAY" : "Начало дня",
    "SNAPMDADMIN_END_DAY" : "Конец дня",
    "SNAPMDADMIN_START_TIME" : "Время начала",
    "SNAPMDADMIN_END_TIME" : "Время окончания",

    "SNAPMDADMIN_ORGANIZATIONS" : "Организации",
    "SNAPMDADMIN_ORGANIZATION_TYPE" : "Тип организации",
    "SNAPMDADMIN_ORGANIZATION" : "Организация",

    "SNAPMDADMIN_SMS_TEMPLATE" :"SMS Шаблон",
    "SNAPMDADMIN_CLIENT_SMS_TEMPLATE" : "Шаблон клиентских SMS",
    "SNAPMDADMIN_TYPE" : "Тип",
    "SNAPMDADMIN_SMS_TEXT" : "Текст SMS",
    "SNAPMDADMIN_SMS_TYPE" : "Тип SMS",
    "SNAPMDADMIN_SMS_BODY" : "Тело SMS",

    "SNAPMDADMIN_SOAP_CODES" : "Коды SOAP",
    "SNAPMDADMIN_SOAP_CODES_SETTING" : "Настройка кодов SOAP",
    "SNAPMDADMIN_CHOOSE_WHAT_MEDICAL_CODES" : "Выберите, какие медицинские коды будут доступны для больницы",
    "SNAPMDADMIN_REMOVE_DIAGNOSTIC_CODING_SYSTEM" : "Удалить диагностическую систему кодирования",

    "SNAPMDADMIN_CODE_SETS" : "Настройки кодов",
    "SNAPMDADMIN_CODE_SET_SETTINGS" : "Настройки набора кодов",
    "SNAPMDADMIN_CODE_SET" : "Набор кодов",
    "SNAPMDADMIN_DESCRIPTION" : "Описание",
    "SNAPMDADMIN_PARTNER_CODE" : "Код партнера",
    "SNAPMDADMIN_IS_ACTIVE" : "Активен",

    "SNAPMDADMIN_HOSPITAL_DOC" : "Больничные док.",
    "SNAPMDADMIN_HOSPITAL_DOCUMENT" : "Документ больницы",
    "SNAPMDADMIN_DOCUMENT_TYPE" : "Тип документа",
    "SNAPMDADMIN_DOCUMENT_TEXT" : "Текст документа",

    "SNAPMDADMIN_LOCATIONS" :"Местоположение",
    "SNAPMDADMIN_DOCUMENT_LOCATIONS" : "Местонахождение",

    "TABLE_HOSPITAL_ID" : "ИД больницы",
    "TABLE_HOSPITAL_NAME" : "Название больницы",
    "TABLE_CALLER_USER_ID" : "Идентификатор пользователя вызывающего абонента",
    "TABLE_CALLER_NAME" : "Имя вызывающего абонента",
    "TABLE_PATIENT_USER_ID" : "Идентификатор пользователя пациента",
    "TABLE_CALLEE_USER_ID" : "Идентификатор пользователя вызываемого абонента",
    "TABLE_CALLEE_NAME" : "Имя вызываемого абонента",
    "TABLE_CALL_TYPE" : "Тип вызова",
    "TABLE_STATUS" : "Статус",
    "TABLE_WITHOUT_CHARGE" : "Без платы",
    "TABLE_START_TIME" : "Время начала",
    "TABLE_CALL_DURATION_MIN_SECS" : "Длительность звонка (мин:сек)",
    "TABLE_MESSAGES_IN_REPLY" : "Сообщения в ответ",
    "TABLE_REPLY_LENGTH_CHARACTERS" : "Длина ответа (символы)",
    "TABLE_CHAT_DURATION_MINS_SECS" : "Продолжительность чата (мин:сек)",

    "TABLE_ID" : "ИД",
    "TABLE_DATE_STAMP" : "Штамп с датой",
    "TABLE_MESSAGE_ORIGIN" : "Происхождение сообщений",
    "TABLE_MESSAGE_TYPE" : "Тип сообщения",
    "TABLE_MESSAGE" : "Сообщение",
    "TABLE_RECOMENDATION" : "Рекомендация",
    "TABLE_LOG_LEVEL" : "Уровень журнала",
    "TABLE_IP_ADDRES" : "Ip адрес",

    "CONSULTATION_MEETINGS_REPORT" : "Отчет о консультациях",
    "HEAD_SELECT_CLIENT" : "Клиент",
    "HEAD_SELECT_MAX_RECORDS_COUNT" : "Максимальное количество записей",
    "HEAD_SELECT_FROM_DATE" : "С даты",
    "HEAD_SELECT_TO_DATE" : "По дату",
    "BUTTON_TO_EXCEL" : "В Excel",
    "BUTTON_QUERY" : "Запрос",
    "CALL_TYPE" : "Тип вызова",
    "PROVIDER_PROVIDER_AUDIO" : "предоставить-провайдер аудио",
    "PROVIDER_PROVIDER_VIDEO" : "предоставить-провайдер видео",
    "PROVIDER_PATIENT" : "предоставить-пациента",
    "OPEN_CONSULTATION" : "открытая консультация",
    "BUTTON_SELECT_ALL" : "Выбрать все",
    "BUTTON_DESELECT_ALL" : "Убрать выделение",

    "REVIEW_LOGGED_MESSAGES" : "Просмотр зарегистрированных сообщений",
    "SEARCH_PHRASE" : "Поисковая фраза",
    "SEARCH" : "Поиск",
    "LOGS_MAX_COUNT" : "Максимальное количество журналов",
    "DATE_SORT" : "Сортировка по дате",
    "DATE_SORT_ASC" : "Восходящий",
    "DATE_SORT_DESC" : "Нисходящий",
    "MESSAGE_TYPES" : "Типы сообщений",
    "MESSAGE_TYPES_INFO" : "Информация",
    "MESSAGE_TYPES_ERROR" : "Ошибка",

    "BUTTON_COMMON_LOG" : "Общий журнал",
    "BUTTON_REFRESH" : "Обновление",
    "BUTTON_DETAILS" : "Детали",
    "BUTTON_LOG" : "Журнал",
    "TABLE_DESCRIPTION" : "Описание",
    "TABLE_SERVICE_STATUS" : "Статус обслуживания",
    "TABLE_LAST_RUN_TIME" : "Время последнего прогона",
    "TABLE_VERSION" : "Версия",
    "TABLE_CYCLE_SEC" : "Цикл (сек)",
    "TABLE_LOGGING_LEVEL" : "Уровень ведения журнала",
    "SERVICE_INFORMATION" : "Служебная информация",
    "MODAL_STATUS" : "Статус",
    "SERVICE_LOG_RECORDS" : "Сводные отчеты о транзакциях SMS",

    "MESSAGE_TYPES_INTERNAL" : "Внутренний",
    "MESSAGE_TYPES_ADMIN" : "Администратор",
    "MESSAGE_TYPES_PUBLIC" : "Публичный",
    "TABLE_INTEGRATION_LOG_ID" : "Идентификатор журнала интеграции",
    "TABLE_LOG_TYPE" : "Тип журнала",
    "TABLE_DATE_CREATED" : "Дата создания",
    "TABLE_PATIENT_ID" : "Идентификатор пациента",
    "TABLE_HOSPITAL_STAFF_PROFILE_ID" : "Идентификатор профиля больницы",
    "TABLE_PARTNER_ID" : "Идентификационный номер партнера",
    "TABLE_LOG_MESSAGE" : "Сообщение журнала",
    "TABLE_COMMAND_NAME" : "Название команды",

    "SETTINGS": "Настройки",
    "SETTINGS_CLIENT" : "Клиент",
    "SETTINGS_MODULES" : "Модули",
    "SETTINGS_MOBILE" : "Мобильная версия",
    "SETTINGS_PLATFORM_SEATS" : "Рабочие места платформы",
    "SETTINGS_BRANDING" : "Фирменый стиль",
    "SETTINGS_PAYMENT_PARTNER" : "Платежный партнёр",
    "SETTINGS_EPRESCRIPTION_PARTNER" : "Партнёр электронных рецептов",
    "SETTINGS_SINGLE_SIGN_ON" : "Единая точка входа",
    "SETTINGS_CONSULTATION_PARAMETERS" : "Параметры консультаций",
    "SETTINGS_REQUIRED_CUSTOMER_FIELDS" : "Обязательные поля клиента",
    "SETTINGS_CUSTOM_APP_LINKS" : "Настраиваемые ссылки приложений",
    "SETTINGS_EHR_INTEGRATION" : "EHR интеграция",
    "SETTINGS_INTERNAL_API_INTEGRATION" : "Интеграция с внутренним API",

    "ADD_CLIENT_ACCEPT" : "принять",
    "ADD_CLIENT_HOSPITAL_NAME" : "Название больницы",
    "ADD_CLIENT_EMAIL" : "Эл. адрес",
    "ADD_CLIENT_PHONE" : "Телефон",
    "ADD_CLIENT" : "Добавить клиента",
    "ADD_CLIENT_CLEAR" : "Очистить",
    "ADD_CLIENT_HOSPITAL_TYPE" : "Тип больницы",

    "CLICK_TO_UPLOAD" : "выберите изображение",
    "DROP_FILES_HERE" : "перетащите файлы здесь",
    "OR" : "или"
}