{
    "LANGUAGE":"ES",
    "VALIDATION_INVALID_EMIAL": "el correo electrónico es invalido",
    "VALIDATION_INVALID_PASSWORD": "La contraseña no es válida",
    "VALIDATION_EMPTY_STRING": "El valor no puede estar vacío",
    "VALIDATION_INVALID_DATE": "El valor no es una fecha",
    "VALIDATION_NOT_DATE": "El valor no es la fecha",
    "VALIDATION_FLAG_NOT_CHECKED": "La bandera debe ser marcada",
    "VALIDATION_PASSWORDS_NOT_EQUAL": "La contraseña y la confirmación no son iguales",
    "VALIDATION_PLEASE_CORRECT_ERRORS": "Por favor corrige los apartados de abajo",
    "VALIDATION_ACCEPT_TERMS": "Por favor acepte los términos y condiciones",
    "VALIDATION_SHOULD_BE_OLDER": "Debe tener al menos %AGE% años para registrarse",
    
    
    "COMPONENTS_LOGIN_ADMIN" : "Login de administrador",
    "COMPONENTS_LOGIN_PROVIDER" : "Inicio de sesión del proveedor",
    "COMPONENTS_LOGIN_PATIENT" : "Login del cliente",
    "COMPONENTS_FORGOT_PASSWORD" : "Se te olvidó tu contraseña",

    "HEADER_CLIENTS" : "Clientela",
    "HEADER_REPORTS" : "Informes",
    "HEADER_CONSULTATION_MEETINGS" : "Reuniones de consulta",
    "HEADER_VIEW_LOGS" : "Ver los registros",
    "HEADER_INTEGRATION_LOGS" : "Registros de integración",
    "HEADER_SERVICES" : "Servicios",
    "HEADER_LOG_OUT" : "Cerrar sesión",
    "HEADER_LOGS" : "Registros",
    
    "SNAPMDADMIN_CLIENT_ALL_TYPES" : "Todos los tipos",  
    "SNAPMDADMIN_CLIENT_SHOW_ARCHIVED" : "Mostrar archivado",
    "SNAPMDADMIN_ADD_NEW_RECORD" : "Añadir nuevo registro",
    "SNAPMDADMIN_EDIT" : "Editar",
    "SNAPMDADMIN_DELETE" : "Borrar",
    "SNAPMDADMIN_CLIENT_ID" : "Id",
    "SNAPMDADMIN_CLIENT_NAME" : "Nombre",
    "SNAPMDADMIN_BUTTON_UPDATE" : "Actualizar",
    "SNAPMDADMIN_BUTTON_CLOSE" : "Cerca",
    "SNAPMDADMIN_BUTTON_SAVE" : "Salvar",
    "SNAPMDADMIN_TOTAL_ITEMS" : "Articulos totales",
    "SNAPMDADMIN_COLLAPSE_ALL" : "Contraer todo",
    "SNAPMDADMIN_EXPAND_ALL" : "Expandir todo",
    "SNAPMDADMIN_SAVE_SETTINGS" : "Guardar ajustes",

    "DASHBOARD_CLIENT" : "Cliente",
    "DASHBOARD" : "Panel de instrumentos",

    "SNAPMDADMIN_DETAILS" : "Detalles",
    "SNAPMDADMIN_CLIENT_SEATS" : "Asientos",
    "SNAPMDADMIN_CLIENT_SEATS_ASSIGNED" : "Asientos asignados",
    "SNAPMDADMIN_CLIENT_DETAILS" : "Detalles",
    "SNAPMDADMIN_NO_DATA_TO_DISPLAY" : "No hay información para mostrar",
    "SNAPMDADMIN_CLIENT_CONTACTS_AREA_IN_DEVELOPMENT" : "Área de contactos del cliente en desarrollo",
    "SNAPMDADMIN_CLIENT_ANALITICS_AREA_IN_DEVELOPMENT" : "Área de Client Analytics en desarrollo",
    "SNAPMDADMIN_BUTTON_ARCHIVE_CLIENT" : "Archivar cliente",
    "SNAPMDADMIN_BUTTON_ACTIVATE_CLIENT" : "Activar cliente",
    "SNAPMDADMIN_PROVIDER_SEATS" : "Asientos del proveedor",
    "SNAPMDADMIN_ADMIN_SEATS" : "Asientos administrativos",
    "SNAPMDADMIN_TOTAL_SEATS" : "Asientos totales",

    "SNAPMDADMIN_SETTINGSV2_CLIENT" : "Cliente",
    "SNAPMDADMIN_SETTINGSV2_CLIENT_ADDRESS" : "Dirección del cliente",
    "SNAPMDADMIN_SETTINGSV2_MODULES" : "Módulos",
    "SNAPMDADMIN_SETTINGSV2_MOBILE" : "Móvil",
    "SNAPMDADMIN_SETTINGSV2_PLATFORM_SEATS" : "Asientos de plataforma",
    "SNAPMDADMIN_SETTINGSV2_BRANDING" : "Marca",
    "SNAPMDADMIN_SETTINGSV2_PAYMENT_PARTNER" : "Socio de pago",
    "SNAPMDADMIN_SETTINGSV2_EPRESCRIPTION_PARTNER" : "Prescription Partner",
    "SNAPMDADMIN_SETTINGSV2_SINGLE_SIGN_ON" : "Inicio de sesión único",
    "SNAPMDADMIN_SETTINGSV2_CONSULTATION_PARAMETERS" : "Parámetros de consulta",
    "SNAPMDADMIN_SETTINGSV2_REQUIRED_CUSTOMER_FIELDS" : "Campos de clientes requeridos",
    "SNAPMDADMIN_SETTINGSV2_CUSTOM_APP_LINKS" : "Enlaces de aplicaciones personalizadas",
    "SNAPMDADMIN_SETTINGSV2_EHR_INTEGRATION" : "Integración EHR",
    "SNAPMDADMIN_SETTINGSV2_INTERNAL_API_INTEGRATION" : "Integración interna de API",
    "SNAPMDADMIN_SETTINGSV2_SUBSCRIBE_NOTIFICATION_EVENTS" :"Subscribe Notification Events",

    "SNAPMDADMIN_SETTINGSV2_CLIENT_TYPE" : "Tipo de cliente",
    "SNAPMDADMIN_SETTINGSV2_CLIENT_NAME" : "Nombre del cliente",
    "SNAPMDADMIN_SETTINGSV2_USE_AS_PRODUCT_NAME" : "Usar como nombre del producto",
    "SNAPMDADMIN_SETTINGSV2_CONSULTATION_FEE" : "Precio de la consulta",
    "SNAPMDADMIN_SETTINGSV2_CONTACT_NUMBER" : "Número de contacto",
    "SNAPMDADMIN_SETTINGSV2_IT_DEPT_CONTACT_NUMBER" : "Número de contacto del departamento",
    "SNAPMDADMIN_SETTINGSV2_APPOINTMENTS_CONTACT_NUMBER" : "Número de contacto de citas",
    "SNAPMDADMIN_SETTINGSV2_NPI_NUMBER" : "Número de NPI",
    "SNAPMDADMIN_SETTINGSV2_LANGUAGE" : "Idioma",

    "SNAPMDADMIN_SETTINGSV2_ADDRESS_LINE_1" : "Dirección 1",
    "SNAPMDADMIN_SETTINGSV2_ADDRESS_LINE_2" : "Dirección 2",
    "SNAPMDADMIN_SETTINGSV2_CITY" : "Ciudad",
    "SNAPMDADMIN_SETTINGSV2_STATE_PROVINCE" : "Estado/Provincia",
    "SNAPMDADMIN_SETTINGSV2_ZIP_POSTAL_CODE" : "Código postal",
    "SNAPMDADMIN_SETTINGSV2_COUNTRY" : "País",

    "SNAPMDADMIN_SETTINGSV2_E_COMMERCE" : "Comercio electrónico",
    "SNAPMDADMIN_SETTINGSV2_HIDE_PAYMENT_PAGE_BEFOR_WAITING_ROOM" : "Ocultar página de pago antes de la sala de espera",
    "SNAPMDADMIN_SETTINGSV2_INS_VERIFICATION" : "En s. Verificación",
    "SNAPMDADMIN_SETTINGSV2_INS_VERIFICATION_TESTING_COMMANDS" : "En s. Comandos de prueba de verificación",
    "SNAPMDADMIN_SETTINGSV2_INSURANCE_VERIFICATION_BEFORE_WAITING_ROOM" : "Verificación de seguro antes de la sala de espera",
    "SNAPMDADMIN_SETTINGSV2_E_PRESCRIPTIONS" : "E-prescriptions",
    "SNAPMDADMIN_SETTINGSV2_SCHEDULE_1" : "Programar 1",
    "SNAPMDADMIN_SETTINGSV2_ON_DEMAND" : "Bajo demanda",
    "SNAPMDADMIN_SETTINGSV2_INTAKE_FROM" : "Formulario de admisión",
    "SNAPMDADMIN_SETTINGSV2_SCHEDULED" : "Programado",
    "SNAPMDADMIN_SETTINGSV2_MEDICAL_CODES" : "Códigos médicos",
    "SNAPMDADMIN_SETTINGSV2_VIDEO_BETA" : "Video Beta",
    "SNAPMDADMIN_SETTINGSV2_PROVIDER_SEARCH" : "Búsqueda de proveedores",
    "SNAPMDADMIN_SETTINGSV2_TEXT_MESSAGING" : "Mensaje de texto",
    "SNAPMDADMIN_SETTINGSV2_RXNT_EHR" : "RxNT EHR",
    "SNAPMDADMIN_SETTINGSV2_RXNT_PM" : "RxNT PM",
    "SNAPMDADMIN_SETTINGSV2_SHOW_CTT_BEFORE_SHEDULED" : "Mostrar CTT antes de lo programado",
    "SNAPMDADMIN_SETTINGSV2_FILE_SHARING" : "Compartición de archivos",
    "SNAPMDADMIN_SETTINGSV2_ORGANIZATION_AND_LOCATION" : "Organización y ubicación",
    "SNAPMDADMIN_SETTINGSV2_ENABLE_ADDRESS_VALIDATION" : "Habilitar validación de dirección",
    "SNAPMDADMIN_SETTINGSV2_HIDE_OPEN_CONSULTATION" : "Ocultar consulta abierta (aún se permite P2P)",
    "SNAPMDADMIN_SETTINGSV2_HIDE_DR_TO_DR_CHAT" : "Ocultar Dr a Dr Chat",
    "SNAPMDADMIN_SETTINGSV2_DISABLE_PHONE_CONSULTATION" : "Desactivar consulta telefónica",
    "SNAPMDADMIN_SETTINGSV2_DR_TO_DR_CHAT_ON_ADMIN" : "Dr to Dr Chat en Admin",
    "SNAPMDADMIN_SETTINGSV2_ANNOTATION" : "Anotación",
    "SNAPMDADMIN_SETTINGSV2_KUBI" : "Kubi",
    "SNAPMDADMIN_SETTINGSV2_CONSULTATION_VIDEO_ARHIVE" : "Archivo de consulta de video",
    "SNAPMDADMIN_SETTINGSV2_ADMIN_MEETING_REPORT" : "Informe de reunión del administrador",
    "SNAPMDADMIN_SETTINGSV2_INCLUDE_DIRECTIONS" : "Incluir indicaciones",
    "SNAPMDADMIN_SETTINGSV2_HIDE_FORGOT_PASSWORD_LINK" : "Ocultar enlace de contraseña olvidada",
    "SNAPMDADMIN_SETTINGSV2_TAG_AN_ENCOUNTER_WITH_GEO_LOCATION" : "Etiquetar un encuentro con la ubicación de GEO",
    "SNAPMDADMIN_SETTINGSV2_SHOW_APPOINTMENT_WIZARD" : "Mostrar asistente de cita",
    "SNAPMDADMIN_SETTINGSV2_IS_NOW_SCHEDULER_BUTTON_ENABLED" : "El botón \"Now\" scheduler está habilitado",

    "SNAPMDADMIN_SETTINGSV2_INCLUDE_IN_GENERIC_APP" : "Incluir en la aplicación genérica",

    "SNAPMDADMIN_SETTINGSV2_SEATS_TYPE" : "Tipo de asientos",
    "SNAPMDADMIN_SETTINGSV2_ASSIGNED" : "Asignado",
    "SNAPMDADMIN_SETTINGSV2_AVAILABLE" : "Disponible",
    "SNAPMDADMIN_SETTINGSV2_ENTERPRISE" : "Empresa",
    "SNAPMDADMIN_SETTINGSV2_INCL" : "incluido",
    "SNAPMDADMIN_SETTINGSV2_PENDING" : "pendiente",
    "SNAPMDADMIN_SETTINGSV2_ADMIN" : "Administración",
    "SNAPMDADMIN_SETTINGSV2_TOTAL_SEATS" : "Asientos totales",

    "SNAPMDADMIN_SETTINGSV2_PLATFORM_NAME" : "Nombre de la plataforma",
    "SNAPMDADMIN_SETTINGSV2_SUB_TITLE" : "Subtítulo",
    "SNAPMDADMIN_SETTINGSV2_PLATFORM_URL" : "URL de plataforma",
    "SNAPMDADMIN_SETTINGSV2_PRIMARY_BRAND_COLOR" : "Color de marca principal",
    "SNAPMDADMIN_SETTINGSV2_BRAND_TEXT_COLOR" : "Color de texto de marca",
    "SNAPMDADMIN_SETTINGSV2_BRAND_BACKGROUND_COLOR" : "Color de fondo de la marca",
    "SNAPMDADMIN_SETTINGSV2_OK" : "DE ACUERDO",
    "SNAPMDADMIN_SETTINGSV2_CLEAR" : "Claro",

    "SNAPMDADMIN_SETTINGSV2_AUTORIZE_NET_BASE_URL" : "Autorize.net Base URL",
    "SNAPMDADMIN_SETTINGSV2_AUTORIZE_NET_POST_URL" : "Autorize.net Publicar URL (dll)",
    "SNAPMDADMIN_SETTINGSV2_AUTORIZE_NET_TRANSACTION_KEY" : "Autorización de la clave de transacción",
    "SNAPMDADMIN_SETTINGSV2_AUTORIZE_NET_LOGIN_ID" : "Identificación de inicio de sesión de Autorize.net",
    "SNAPMDADMIN_SETTINGSV2_CHARGIFY_SUBDOMAIN" : "Subdominio Chargify",
    "SNAPMDADMIN_SETTINGSV2_CHARGIFY_API_V1_KEY" : "Clave Chargify API v1",
    "SNAPMDADMIN_SETTINGSV2_CHARGIFY_API_V2_KEY_ID" : "Id. De clave de Chargify API v2",
    "SNAPMDADMIN_SETTINGSV2_CHARGIFY_API_V2_SHARED_SECRET" : "Chargify API v2 Shared Secret",
    "SNAPMDADMIN_SETTINGSV2_CHARGIFY_API_V2_PASSWORD" : "Chargify API v2 Password",
    "SNAPMDADMIN_SETTINGSV2_SAVE_SETTINGS_AND_SWITCH_TO_AUTORIZE_NET" : "Guarde la configuración y cambie a AutorizeNet",
    "SNAPMDADMIN_SETTINGSV2_SAVE_SETTINGS_AND_SWITCH_TO_CHARGIFY" : "Guarde la configuración y cambie a Chargify",

    "SNAPMDADMIN_SETTINGSV2_SERVICE_URL" : "Service URL",
    "SNAPMDADMIN_SETTINGSV2_SINGLE_SIGN_ON_URL" : "Single Sign-On URL",
    "SNAPMDADMIN_SETTINGSV2_ACCOUNT_ID" : "Account ID",
    "SNAPMDADMIN_SETTINGSV2_PRACTICE_ID" : "Practice ID",
    "SNAPMDADMIN_SETTINGSV2_AUTHENTICATION_KEY" : "Authentication Key",
    "SNAPMDADMIN_SETTINGSV2_API_URL" : "Api URL",
    "SNAPMDADMIN_SETTINGSV2_SAVE_SETTINGS_AND_SWITCH_TO_MDTOOLBOX" : "Save settings and switch to MDToolbox",
    "SNAPMDADMIN_SETTINGSV2_SAVE_SETTINGS_AND_SWITCH_TO_RXNT" : "Save settings and switch to RxNT",

    "SNAPMDADMIN_SETTINGSV2_OAUTH_CLIENT_ID" : "ID de cliente de OAuth",
    "SNAPMDADMIN_SETTINGSV2_OAUTH_CLIENT_SECRET" : "OAuth Client Secret",
    "SNAPMDADMIN_SETTINGSV2_OAUTH_URL" : "URL de OAuth",
    "SNAPMDADMIN_SETTINGSV2_OAUTH_CALLBACK" : "Retrollamada de OAuth",
    "SNAPMDADMIN_SETTINGSV2_SSO_PROVIDER_LOGIN_URL" : "URL de inicio de sesión del proveedor de SSO",
    "SNAPMDADMIN_SETTINGSV2_PROVIDER_CONSULTATION_RETURN_URL" : "Consulta del proveedor URL de devolución",
    "SNAPMDADMIN_SETTINGSV2_PROVIDER_SSO_OPTIONS" : "Opciones de SSO del proveedor (Ninguno, Opcional, Obligatorio)",
    "SNAPMDADMIN_SETTINGSV2_PROVIDER_SSO_BUTTON_TEXT" : "Texto de botón de SSO del proveedor",
    "SNAPMDADMIN_SETTINGSV2_SSO_ADMIN_LOGIN_URL" : "URL de inicio de sesión de administración SSO",
    "SNAPMDADMIN_SETTINGSV2_ADMIN_CONSULTATION_RETURN_URL" : "Consulta del administrador URL de devolución",
    "SNAPMDADMIN_SETTINGSV2_ADMIN_SSO_OPTIONS" : "Opciones de administrador de SSO (Ninguno, Opcional, Obligatorio)",
    "SNAPMDADMIN_SETTINGSV2_ADMIN_SSO_BUTTON_TEXT" : "Texto del botón de administrador SSO",
    "SNAPMDADMIN_SETTINGSV2_SSO_CUSTOMER_LOGIN_URL" : "URL de inicio de sesión de cliente de SSO",
    "SNAPMDADMIN_SETTINGSV2_CUSTOMER_CONSULTATION_RETURN_URL" : "Consulta del cliente URL de devolución",
    "SNAPMDADMIN_SETTINGSV2_CUSTOMER_SSO_OPTIONS" : "Opciones de SSO del cliente (Ninguno, Opcional, Obligatorio)",
    "SNAPMDADMIN_SETTINGSV2_CUSTOMER_SSO_BUTTON_TEXT" : "Texto del botón SSO del cliente",
    "SNAPMDADMIN_SETTINGSV2_JWT_ISSUER" : "Jwt Emisor",
    "SNAPMDADMIN_SETTINGSV2_PATIENT_TOKEN_API" : "Patient Token Api",
    "SNAPMDADMIN_SETTINGSV2_PATIENT_REGISTRATION_API" : "Registro de paciente Api",
    "SNAPMDADMIN_SETTINGSV2_PATIENT_FORGOT_PASSWORD_API" : "Paciente Olvidó la contraseña Api",
    "SNAPMDADMIN_SETTINGSV2_SAVE_SSO" : "Guardar SSO",

    "SNAPMDADMIN_SETTINGSV2_DEFAULT_AVAILABILITY_BLOCK_DURATION" : "Duración predeterminada del bloque de disponibilidad",
    "SNAPMDADMIN_SETTINGSV2_MINUTES" : "minutos",
    "SNAPMDADMIN_SETTINGSV2_GOOD_COVERAGE_MIN_PROVIDERS_COUNT" : "Buena cobertura min. Proveedores cuentan",
    "SNAPMDADMIN_SETTINGSV2_SAVE_CONSULTATION_PARAMS" : "Guardar parámetros de consulta",

    "SNAPMDADMIN_SETTINGSV2_BLOOD_TYPE" : "Tipo de sangre",
    "SNAPMDADMIN_SETTINGSV2_HAIR_COLOR" : "Color de pelo",
    "SNAPMDADMIN_SETTINGSV2_ETHNICITY" : "Etnicidad",
    "SNAPMDADMIN_SETTINGSV2_EYE_COLOR" : "Color de los ojos",
    "SNAPMDADMIN_SETTINGSV2_HEIGHT" : "Altura",
    "SNAPMDADMIN_SETTINGSV2_WEIGHT" : "Peso",
    "SNAPMDADMIN_SETTINGSV2_PREFERRED_PHARMACY" : "Farmacia Preferida",
    "SNAPMDADMIN_SETTINGSV2_PREFERRED_PROVIDER" : "Proveedor Preferido",
    "SNAPMDADMIN_SETTINGSV2_SAVE_CUSTOMER_FIELDS" : "Guardar campos de clientes",

    "SNAPMDADMIN_SETTINGSV2_IOS_SCHEMA_URL" : "URL de esquema de iOS",
    "SNAPMDADMIN_SETTINGSV2_ANDROID_SCHEMA_URL" : "URL de esquema de Android",
    "SNAPMDADMIN_SETTINGSV2_IOS_APP_STORE_URL" : "iOS App Store Url",
    "SNAPMDADMIN_SETTINGSV2_ANDROID_PLAY_STORE_URL" : "Android Play Store URL",
    "SNAPMDADMIN_SETTINGSV2_SAVE_APP_LINKS" : "Guardar enlaces de aplicaciones",

    "SNAPMDADMIN_SETTINGSV2_EXTERNAL_HOSPITAL_ID" : "ID de hospital externo",
    "SNAPMDADMIN_SETTINGSV2_FAILURE_NOTIFICATION_EMAILS" : "Correos electrónicos de notificación de fallas (separados por comas)",
    "SNAPMDADMIN_SETTINGSV2_PRACTICE_MAX_SVC_URL" : "PracticeMax Svc URL",
    "SNAPMDADMIN_SETTINGSV2_PRACTICE_MAX_SVC_LOGIN" : "Login de PracticeMax Svc",
    "SNAPMDADMIN_SETTINGSV2_PRACTICE_MAX_SVC_PASSWORD" : "La contraseña de PracticeMax Svc",
    "SNAPMDADMIN_SETTINGSV2_TELEMED_APPOINTMENT_TYPE" : "Tipo de cita de TeleMed",
    "SNAPMDADMIN_SETTINGSV2_DEFAULT_DEPARTMENT_ID" : "ID de departamento predeterminado",
    "SNAPMDADMIN_SETTINGSV2_SEARCH_DEPARTMENTS" : "Departamentos de búsqueda",
    "SNAPMDADMIN_SETTINGSV2_ATHENA_SVC_LOGIN" : "Acceso a Athena Svc",
    "SNAPMDADMIN_SETTINGSV2_ATHENA_SVC_PASSWORD" : "Contraseña de Athena Svc",
    "SNAPMDADMIN_SETTINGSV2_ATHENA_SVC_URL" : "URL de Athena Svc",
    "SNAPMDADMIN_SETTINGSV2_ATHENA_SVC_AUTH_PREFIX" : "Prefijo de autenticación Athena Svc",
    "SNAPMDADMIN_SETTINGSV2_ATHENA_SVC_API_PREFIX" : "Prefijo API Athena Svc",
    "SNAPMDADMIN_SETTINGSV2_ATHENA_HAS_PROVIDER_OR_FINANCIAL_GROUPS" : "Athena tiene un proveedor o grupos financieros",
    "SNAPMDADMIN_SETTINGSV2_HIDE_PATIENT_PROFILE" : "Ocultar perfil de paciente",
    "SNAPMDADMIN_SETTINGSV2_SYNC_ALLERGIES" : "Sincronizar Alergias",
    "SNAPMDADMIN_SETTINGSV2_SYNC_SURGERIES" : "Sincronizar cirugías",
    "SNAPMDADMIN_SETTINGSV2_SYNC_MEDICAL_HISTORY" : "Sincronizar historial médico",
    "SNAPMDADMIN_SETTINGSV2_SYNC_HEAD_CLINICIAN" : "Sync Head Clinician",
    "SNAPMDADMIN_SETTINGSV2_SYNC_PHARMACIES" : "Farmacias Sync",
    "SNAPMDADMIN_SETTINGSV2_NO_EHR_PARTNER" : "Sin socio EHR",
    "SNAPMDADMIN_SETTINGSV2_SAVE_SETTINGS_AND_SWITCH_TO_NONE" : "Guarde las configuraciones y cambie a Ninguna",
    "SNAPMDADMIN_SETTINGSV2_FINANCIAL_GROUPS" : "Grupos financieros",
    "SNAPMDADMIN_SETTINGSV2_PATIENT_PROFILE" : "Perfil del paciente",
    "SNAPMDADMIN_SETTINGSV2_SAVE_SETTINGS_AND_SWITCH_TO_ATHENA" : "Guarde la configuración y cambie a Athena",
    "SNAPMDADMIN_SETTINGSV2_SAVE_SETTINGS_AND_SWITCH_TO_PRACTICE_MAX" : "Guarde la configuración y cambie a PracticeMax",
    "SNAPMDADMIN_SETTINGSV2_EHR_PARTNER" : "Socio de EHR",

    "SNAPMDADMIN_SETTINGSV2_API_USER_NAME" : "Nombre de usuario API",
    "SNAPMDADMIN_SETTINGSV2_API_USER_PASSWORD" : "Contraseña de usuario API",
    "SNAPMDADMIN_SETTINGSV2_NO_INTERNAL_API_INTEGRATION" : "Sin integración interna de API",
    "SNAPMDADMIN_SETTINGSV2_DISABLE_THE_INTERNAL_API" : "Deshabilitar la API interna",
    "SNAPMDADMIN_SETTINGSV2_SAVE_SETTINGS_AND_ENABLE_THE_INTERNAL_API" : "Guarde la configuración y habilite la API interna",

    "SNAPMDADMIN_SETTINGSV2_SECRET" : "Secreto",
    "SNAPMDADMIN_SETTINGSV2_CALLBACK" : "Llamar de vuelta",

    "SNAPMDADMIN_HOSPITAL_HOURS" : "Horas de hospital",
    "SNAPMDADMIN_ENABLE_HOSPITAL_HOURS_ON_CALENDAR" : "Habilitar horas de hospital en el calendario",
    "SNAPMDADMIN_START_DAY" : "Día de inicio",
    "SNAPMDADMIN_END_DAY" : "Día final",
    "SNAPMDADMIN_START_TIME" : "Hora de inicio",
    "SNAPMDADMIN_END_TIME" : "End Time",

    "SNAPMDADMIN_ORGANIZATIONS" : "Organizaciones",
    "SNAPMDADMIN_ORGANIZATION_TYPE" : "Tipo de organización",
    "SNAPMDADMIN_ORGANIZATION" : "Organization",

    "SNAPMDADMIN_SMS_TEMPLATE" :"Plantilla de SMS",
    "SNAPMDADMIN_CLIENT_SMS_TEMPLATE" : "Plantilla SMS de cliente",
    "SNAPMDADMIN_TYPE" : "Tipo",
    "SNAPMDADMIN_SMS_TEXT" : "Texto SMS",
    "SNAPMDADMIN_SMS_TYPE" : "Tipo de SMS",
    "SNAPMDADMIN_SMS_BODY" : "Cuerpo de SMS",

    "SNAPMDADMIN_SOAP_CODES" : "Códigos SOAP",
    "SNAPMDADMIN_SOAP_CODES_SETTING" : "Configuración de códigos SOAP",
    "SNAPMDADMIN_CHOOSE_WHAT_MEDICAL_CODES" : "Elija qué códigos médicos estarán disponibles para el hospital",
    "SNAPMDADMIN_REMOVE_DIAGNOSTIC_CODING_SYSTEM" : "Eliminar el sistema de codificación de diagnóstico",

    "SNAPMDADMIN_CODE_SETS" : "Conjuntos de códigos",
    "SNAPMDADMIN_CODE_SET_SETTINGS" : "Configuración del conjunto de códigos",
    "SNAPMDADMIN_CODE_SET" : "Conjunto de códigos",
    "SNAPMDADMIN_DESCRIPTION" : "Descripción",
    "SNAPMDADMIN_PARTNER_CODE" : "Código de socio",
    "SNAPMDADMIN_IS_ACTIVE" : "Está activo",

    "SNAPMDADMIN_HOSPITAL_DOC" : "Hospital Doc",
    "SNAPMDADMIN_HOSPITAL_DOCUMENT" : "Documento del hospital",
    "SNAPMDADMIN_DOCUMENT_TYPE" : "Tipo de Documento",
    "SNAPMDADMIN_DOCUMENT_TEXT" : "Texto del documento",

    "SNAPMDADMIN_LOCATIONS" :"Ubicaciones",
    "SNAPMDADMIN_DOCUMENT_LOCATIONS" : "Ubicaciones",

    "TABLE_HOSPITAL_ID" : "Identificación del hospital",
    "TABLE_HOSPITAL_NAME" : "Nombre del hospital",
    "TABLE_CALLER_USER_ID" : "Identificador de usuario de llamada",
    "TABLE_CALLER_NAME" : "Caller Name",
    "TABLE_PATIENT_USER_ID" : "Nombre de la persona que llama",
    "TABLE_CALLEE_USER_ID" : "Identificación de usuario de Callee",
    "TABLE_CALLEE_NAME" : "Nombre de Callee",
    "TABLE_CALL_TYPE" : "Tipo de llamada",
    "TABLE_STATUS" : "Estado",
    "TABLE_WITHOUT_CHARGE" : "Sin bateria",
    "TABLE_START_TIME" : "Hora de inicio",
    "TABLE_CALL_DURATION_MIN_SECS" : "Duración de la llamada (min:seg)",
    "TABLE_MESSAGES_IN_REPLY" : "Mensajes en respuesta",
    "TABLE_REPLY_LENGTH_CHARACTERS" : "Longitud de respuesta (caracteres)",
    "TABLE_CHAT_DURATION_MINS_SECS" : "Duración del chat (min:seg)",

    "TABLE_ID" : "Carné de identidad",
    "TABLE_DATE_STAMP" : "Sello de la fecha",
    "TABLE_MESSAGE_ORIGIN" : "Origen del mensaje",
    "TABLE_MESSAGE_TYPE" : "Tipo de mensaje",
    "TABLE_MESSAGE" : "Mensaje",
    "TABLE_RECOMENDATION" : "Recomendación",
    "TABLE_LOG_LEVEL" : "Nivel de registro",
    "TABLE_IP_ADDRES" : "Dirección IP",

    "CONSULTATION_MEETINGS_REPORT" : "Informe de reuniones de consulta",
    "HEAD_SELECT_CLIENT" : "Cliente",
    "HEAD_SELECT_MAX_RECORDS_COUNT" : "Número máximo de registros",
    "HEAD_SELECT_FROM_DATE" : "Partir de la fecha",
    "HEAD_SELECT_TO_DATE" : "Hasta la fecha",
    "BUTTON_TO_EXCEL" : "A Excel",
    "BUTTON_QUERY" : "Consulta",
    "CALL_TYPE" : "Tipo de llamada",
    "PROVIDER_PROVIDER_AUDIO" : "proporcionar-proveedor de audio",
    "PROVIDER_PROVIDER_VIDEO" : "video del proveedor de servicios",
    "PROVIDER_PATIENT" : "proporcionar-paciente",
    "OPEN_CONSULTATION" : "consulta abierta",
    "BUTTON_SELECT_ALL" : "Seleccionar todo",
    "BUTTON_DESELECT_ALL" : "Deseleccionar todo",

    "REVIEW_LOGGED_MESSAGES" : "Revise los mensajes registrados",
    "SEARCH_PHRASE" : "Frase de búsqueda",
    "SEARCH" : "Buscar",
    "LOGS_MAX_COUNT" : "Registros máximo contar",
    "DATE_SORT" : "Tipo de fecha",
    "DATE_SORT_ASC" : "ascendiendo",
    "DATE_SORT_DESC" : "descendiendo",
    "MESSAGE_TYPES" : "Tipos de mensajes",
    "MESSAGE_TYPES_INFO" : "Información",
    "MESSAGE_TYPES_ERROR" : "Error",

    "BUTTON_COMMON_LOG" : "Registro común",
    "BUTTON_REFRESH" : "Refrescar",
    "BUTTON_DETAILS" : "detalles",
    "BUTTON_LOG" : "Iniciar sesión",
    "TABLE_DESCRIPTION" : "Descripción",
    "TABLE_SERVICE_STATUS" : "Estado del servicio",
    "TABLE_LAST_RUN_TIME" : "Último tiempo de ejecución",
    "TABLE_VERSION" : "Versión",
    "TABLE_CYCLE_SEC" : "Ciclo (sec)",
    "TABLE_LOGGING_LEVEL" : "Nivel de registro",
    "SERVICE_INFORMATION" : "Servicio de información",
    "MODAL_STATUS" : "Estado",
    "SERVICE_LOG_RECORDS" : "Registros de registro de servicio de consulta de SMS",

    "MESSAGE_TYPES_INTERNAL" : "Interno",
    "MESSAGE_TYPES_ADMIN" : "Administración",
    "MESSAGE_TYPES_PUBLIC" : "Público",
    "TABLE_INTEGRATION_LOG_ID" : "ID de registro de integración",
    "TABLE_LOG_TYPE" : "Tipo de registro",
    "TABLE_DATE_CREATED" : "fecha de creacion",
    "TABLE_PATIENT_ID" : "ID del paciente",
    "TABLE_HOSPITAL_STAFF_PROFILE_ID" : "Identificación del perfil del personal del hospital",
    "TABLE_PARTNER_ID" : "Identificación del socio",
    "TABLE_LOG_MESSAGE" : "Mensaje de registro",
    "TABLE_COMMAND_NAME" : "Nombre del comando",

    "SETTINGS": "Configuración",
    "SETTINGS_CLIENT" : "Cliente",
    "SETTINGS_MODULES" : "Módulos",
    "SETTINGS_MOBILE" : "Móvil",
    "SETTINGS_PLATFORM_SEATS" : "Asientos de plataforma",
    "SETTINGS_BRANDING" : "Marca",
    "SETTINGS_PAYMENT_PARTNER" : "Socio de pago",
    "SETTINGS_EPRESCRIPTION_PARTNER" : "Socio de e-Prescripción",
    "SETTINGS_SINGLE_SIGN_ON" : "Inicio de sesión único",
    "SETTINGS_CONSULTATION_PARAMETERS" : "Parámetros de consulta",
    "SETTINGS_REQUIRED_CUSTOMER_FIELDS" : "Campos de clientes requeridos",
    "SETTINGS_CUSTOM_APP_LINKS" : "Enlaces de aplicaciones personalizadas",
    "SETTINGS_EHR_INTEGRATION" : "EHR integración",
    "SETTINGS_INTERNAL_API_INTEGRATION" : "Integración API interna",

    "ADD_CLIENT_ACCEPT" : "aceptar",
    "ADD_CLIENT_HOSPITAL_NAME" : "Nombre del hospital",
    "ADD_CLIENT_EMAIL" : "Email",
    "ADD_CLIENT_PHONE" : "Teléfono",
    "ADD_CLIENT" : "Agregar cliente",
    "ADD_CLIENT_CLEAR" : "Claro",
    "ADD_CLIENT_HOSPITAL_TYPE" : "Tipo de hospital",

    "CLICK_TO_UPLOAD" : "seleccionar imagen",
    "DROP_FILES_HERE" : "soltar archivos aquí",
    "OR" : "o"
}